Análisis exploratorio
…
1.1 - Descripción de las variables

Realicemos una pequeña descripción de cada variable:

pais: país del que proceden los datos. Veamos cuántos países se recogen.

# A tibble: 200 × 1
   pais             
   <chr>            
 1 Afganistán       
 2 Albania          
 3 Argelia          
 4 Samoa Americana  
 5 Andorra          
 6 Angola           
 7 Antigua y Barbuda
 8 Argentina        
 9 Armenia          
10 Australia        
# ℹ 190 more rows
…
